<?xml version="1.0" encoding="UTF-8" standalone="no"?>
<svg
   inkscape:export-ydpi="96"
   inkscape:export-xdpi="96"
   inkscape:export-filename="gwy_graph_measure-24.png"
   sodipodi:docname="gwy_graph_period_measure-24.svg"
   inkscape:version="1.2.2 (b0a8486541, 2022-12-01)"
   version="1.1"
   id="svg8232"
   viewBox="0 0 24 24"
   height="24"
   width="24"
   xmlns:inkscape="http://www.inkscape.org/namespaces/inkscape"
   xmlns:sodipodi="http://sodipodi.sourceforge.net/DTD/sodipodi-0.dtd"
   xmlns:xlink="http://www.w3.org/1999/xlink"
   xmlns="http://www.w3.org/2000/svg"
   xmlns:svg="http://www.w3.org/2000/svg"
   xmlns:rdf="http://www.w3.org/1999/02/22-rdf-syntax-ns#"
   xmlns:cc="http://creativecommons.org/ns#"
   xmlns:dc="http://purl.org/dc/elements/1.1/">
  <defs
     id="defs8234">
    <linearGradient
       gradientTransform="translate(77.59327,1051.5075)"
       xlink:href="#linearGradient4140"
       id="linearGradient4171"
       gradientUnits="userSpaceOnUse"
       x1="207.50029"
       y1="247.92804"
       x2="272.91217"
       y2="361.22473" />
    <linearGradient
       id="linearGradient4140">
      <stop
         style="stop-color:#d7e3f4;stop-opacity:1;"
         offset="0"
         id="stop4142" />
      <stop
         style="stop-color:#f1f5fb;stop-opacity:1"
         offset="1"
         id="stop4144" />
    </linearGradient>
    <linearGradient
       y2="361.22473"
       x2="272.91217"
       y1="247.92804"
       x1="207.50029"
       gradientTransform="translate(34.82165,1050.6611)"
       gradientUnits="userSpaceOnUse"
       id="linearGradient8503"
       xlink:href="#linearGradient4140"
       inkscape:collect="always" />
    <linearGradient
       y2="361.22473"
       x2="272.91217"
       y1="247.92804"
       x1="207.50029"
       gradientTransform="translate(50.38806,1059.1518)"
       gradientUnits="userSpaceOnUse"
       id="linearGradient11272"
       xlink:href="#linearGradient4140"
       inkscape:collect="always" />
    <linearGradient
       inkscape:collect="always"
       xlink:href="#linearGradient4140"
       id="linearGradient9134"
       gradientUnits="userSpaceOnUse"
       gradientTransform="translate(10.14634,1056.6829)"
       x1="207.50029"
       y1="247.92804"
       x2="272.91217"
       y2="361.22473" />
    <linearGradient
       gradientTransform="translate(89.7437,1058.4951)"
       xlink:href="#linearGradient4140"
       id="linearGradient4171-3"
       gradientUnits="userSpaceOnUse"
       x1="207.50029"
       y1="247.92804"
       x2="272.91217"
       y2="361.22473" />
    <linearGradient
       y2="361.22473"
       x2="272.91217"
       y1="247.92804"
       x1="207.50029"
       gradientTransform="translate(46.97208,1057.6487)"
       gradientUnits="userSpaceOnUse"
       id="linearGradient8503-5"
       xlink:href="#linearGradient4140"
       inkscape:collect="always" />
    <linearGradient
       y2="361.22473"
       x2="272.91217"
       y1="247.92804"
       x1="207.50029"
       gradientTransform="translate(62.53849,1066.1394)"
       gradientUnits="userSpaceOnUse"
       id="linearGradient11272-3"
       xlink:href="#linearGradient4140"
       inkscape:collect="always" />
    <linearGradient
       inkscape:collect="always"
       xlink:href="#linearGradient4140"
       id="linearGradient9134-5"
       gradientUnits="userSpaceOnUse"
       gradientTransform="translate(22.29677,1063.6705)"
       x1="207.50029"
       y1="247.92804"
       x2="272.91217"
       y2="361.22473" />
    <linearGradient
       gradientTransform="translate(67.16669,1107.7768)"
       xlink:href="#linearGradient4140"
       id="linearGradient4171-36"
       gradientUnits="userSpaceOnUse"
       x1="207.50029"
       y1="247.92804"
       x2="272.91217"
       y2="361.22473" />
    <linearGradient
       y2="361.22473"
       x2="272.91217"
       y1="247.92804"
       x1="207.50029"
       gradientTransform="translate(24.39507,1106.9304)"
       gradientUnits="userSpaceOnUse"
       id="linearGradient8503-3"
       xlink:href="#linearGradient4140"
       inkscape:collect="always" />
    <linearGradient
       y2="361.22473"
       x2="272.91217"
       y1="247.92804"
       x1="207.50029"
       gradientTransform="translate(39.96148,1115.4211)"
       gradientUnits="userSpaceOnUse"
       id="linearGradient11272-5"
       xlink:href="#linearGradient4140"
       inkscape:collect="always" />
    <linearGradient
       inkscape:collect="always"
       xlink:href="#linearGradient4140"
       id="linearGradient9134-6"
       gradientUnits="userSpaceOnUse"
       gradientTransform="translate(-0.28024,1112.9522)"
       x1="207.50029"
       y1="247.92804"
       x2="272.91217"
       y2="361.22473" />
    <linearGradient
       gradientTransform="translate(36.81181,686.1225)"
       xlink:href="#linearGradient4140"
       id="linearGradient4171-367"
       gradientUnits="userSpaceOnUse"
       x1="207.50029"
       y1="247.92804"
       x2="272.91217"
       y2="361.22473" />
    <linearGradient
       y2="361.22473"
       x2="272.91217"
       y1="247.92804"
       x1="207.50029"
       gradientTransform="translate(-5.95981,685.2761)"
       gradientUnits="userSpaceOnUse"
       id="linearGradient8503-56"
       xlink:href="#linearGradient4140"
       inkscape:collect="always" />
    <linearGradient
       y2="361.22473"
       x2="272.91217"
       y1="247.92804"
       x1="207.50029"
       gradientTransform="translate(9.6066,693.7668)"
       gradientUnits="userSpaceOnUse"
       id="linearGradient11272-2"
       xlink:href="#linearGradient4140"
       inkscape:collect="always" />
    <linearGradient
       inkscape:collect="always"
       xlink:href="#linearGradient4140"
       id="linearGradient9134-9"
       gradientUnits="userSpaceOnUse"
       gradientTransform="translate(-30.63512,691.2979)"
       x1="207.50029"
       y1="247.92804"
       x2="272.91217"
       y2="361.22473" />
    <clipPath
       clipPathUnits="userSpaceOnUse"
       id="clipPath9917">
      <path
         style="color:#000000;font-variation-settings:normal;overflow:visible;opacity:1;vector-effect:none;fill:#db2424;fill-opacity:1;stroke:none;stroke-width:2;stroke-linecap:butt;stroke-linejoin:bevel;stroke-miterlimit:4;stroke-dasharray:none;stroke-dashoffset:0;stroke-opacity:0.753456;-inkscape-stroke:none;marker:none;paint-order:fill markers stroke;stop-color:#000000;stop-opacity:1"
         d="m 279.88676,606.70107 v 6.5 h 3.5 v 6 h 8 v -6.5 h -3.5 v -6 z"
         id="path9919" />
    </clipPath>
  </defs>
  <sodipodi:namedview
     inkscape:document-rotation="0"
     inkscape:object-paths="true"
     inkscape:snap-global="true"
     showguides="false"
     inkscape:object-nodes="true"
     inkscape:snap-smooth-nodes="false"
     inkscape:window-maximized="1"
     inkscape:window-y="33"
     inkscape:window-x="0"
     inkscape:window-height="1148"
     inkscape:window-width="1920"
     units="px"
     showgrid="true"
     inkscape:current-layer="layer1"
     inkscape:document-units="px"
     inkscape:cy="10.538008"
     inkscape:cx="4.8371186"
     inkscape:zoom="49.202846"
     inkscape:pageshadow="2"
     inkscape:pageopacity="0.0"
     borderopacity="1.0"
     bordercolor="#666666"
     pagecolor="#ffffff"
     id="base"
     inkscape:showpageshadow="2"
     inkscape:pagecheckerboard="0"
     inkscape:deskcolor="#d1d1d1">
    <inkscape:grid
       empspacing="2"
       visible="true"
       enabled="true"
       spacingy="0.5"
       spacingx="0.5"
       snapvisiblegridlinesonly="false"
       dotted="false"
       originy="0"
       originx="0"
       id="grid1px"
       type="xygrid" />
  </sodipodi:namedview>
  <metadata
     id="metadata8237">
    <rdf:RDF>
      <cc:Work
         rdf:about="">
        <dc:format>image/svg+xml</dc:format>
        <dc:type
           rdf:resource="http://purl.org/dc/dcmitype/StillImage" />
      </cc:Work>
    </rdf:RDF>
  </metadata>
  <g
     transform="translate(-277.38676,-597.20107)"
     id="layer1"
     inkscape:groupmode="layer"
     inkscape:label="Layer 1">
    <g
       transform="translate(51.769939,3.2676594)"
       id="g5943">
      <rect
         style="color:#000000;display:inline;overflow:visible;visibility:visible;opacity:1;vector-effect:none;fill:#ffffff;fill-opacity:1;fill-rule:evenodd;stroke:#4696db;stroke-width:1px;stroke-linecap:butt;stroke-linejoin:miter;stroke-miterlimit:4;stroke-dasharray:none;stroke-dashoffset:0;stroke-opacity:1;marker:none;marker-start:none;marker-mid:none;marker-end:none;enable-background:accumulate"
         id="rect8419"
         width="23"
         height="23"
         x="226.11682"
         y="594.43341" />
      <g
         id="g8458"
         transform="rotate(-90,251.13657,673.09507)">
        <path
           inkscape:connector-curvature="0"
           id="path8446"
           d="m 307.29821,668.07531 h 22"
           style="fill:none;fill-rule:evenodd;stroke:#e6e6e6;stroke-width:1px;stroke-linecap:butt;stroke-linejoin:miter;stroke-opacity:1" />
        <path
           style="fill:none;fill-rule:evenodd;stroke:#e6e6e6;stroke-width:1px;stroke-linecap:butt;stroke-linejoin:miter;stroke-opacity:1"
           d="m 307.29821,653.07531 h 22"
           id="path8448"
           inkscape:connector-curvature="0" />
        <path
           style="fill:none;fill-rule:evenodd;stroke:#e6e6e6;stroke-width:1px;stroke-linecap:butt;stroke-linejoin:miter;stroke-opacity:1"
           d="m 307.29821,663.07531 h 22"
           id="path8450"
           inkscape:connector-curvature="0" />
        <path
           inkscape:connector-curvature="0"
           id="path8452"
           d="m 307.29821,658.07531 h 22"
           style="fill:none;fill-rule:evenodd;stroke:#e6e6e6;stroke-width:1px;stroke-linecap:butt;stroke-linejoin:miter;stroke-opacity:1" />
      </g>
      <path
         inkscape:connector-curvature="0"
         id="path8444"
         d="m 226.61681,613.43343 h 22"
         style="fill:none;fill-rule:evenodd;stroke:#e6e6e6;stroke-width:1px;stroke-linecap:butt;stroke-linejoin:miter;stroke-opacity:1" />
      <path
         style="fill:none;fill-rule:evenodd;stroke:#e6e6e6;stroke-width:1px;stroke-linecap:butt;stroke-linejoin:miter;stroke-opacity:1"
         d="m 226.61681,598.43343 h 22"
         id="path8438"
         inkscape:connector-curvature="0" />
      <path
         style="fill:none;fill-rule:evenodd;stroke:#e6e6e6;stroke-width:1px;stroke-linecap:butt;stroke-linejoin:miter;stroke-opacity:1"
         d="m 226.61681,608.43343 h 22"
         id="path8442"
         inkscape:connector-curvature="0" />
      <path
         inkscape:connector-curvature="0"
         id="path8440"
         d="m 226.61681,603.43343 h 22"
         style="fill:none;fill-rule:evenodd;stroke:#e6e6e6;stroke-width:1px;stroke-linecap:butt;stroke-linejoin:miter;stroke-opacity:1" />
    </g>
    <path
       style="opacity:1;fill:url(#linearGradient4171);fill-opacity:1;stroke:#000000;stroke-width:5;stroke-linecap:square;stroke-linejoin:round;stroke-miterlimit:4;stroke-dasharray:none;stroke-dashoffset:0;stroke-opacity:1"
       id="path4138-6"
       r="70.205605"
       cy="308.38486"
       cx="242.94168"
       d=""
       inkscape:connector-curvature="0" />
    <path
       style="opacity:1;fill:url(#linearGradient8503);fill-opacity:1;stroke:#000000;stroke-width:5;stroke-linecap:square;stroke-linejoin:round;stroke-miterlimit:4;stroke-dasharray:none;stroke-dashoffset:0;stroke-opacity:1"
       id="path4138-6-1"
       r="70.205605"
       cy="308.38486"
       cx="242.94168"
       d=""
       inkscape:connector-curvature="0" />
    <path
       style="opacity:1;fill:url(#linearGradient11272);fill-opacity:1;stroke:#000000;stroke-width:5;stroke-linecap:square;stroke-linejoin:round;stroke-miterlimit:4;stroke-dasharray:none;stroke-dashoffset:0;stroke-opacity:1"
       id="path4138-6-3"
       r="70.205605"
       cy="308.38486"
       cx="242.94168"
       d=""
       inkscape:connector-curvature="0" />
    <path
       style="opacity:1;fill:url(#linearGradient9134);fill-opacity:1;stroke:#000000;stroke-width:5;stroke-linecap:square;stroke-linejoin:round;stroke-miterlimit:4;stroke-dasharray:none;stroke-dashoffset:0;stroke-opacity:1"
       id="path4138-6-6"
       r="70.205605"
       cy="308.38486"
       cx="242.94168"
       d=""
       inkscape:connector-curvature="0" />
    <path
       style="opacity:1;fill:url(#linearGradient4171-3);fill-opacity:1;stroke:#000000;stroke-width:5;stroke-linecap:square;stroke-linejoin:round;stroke-miterlimit:4;stroke-dasharray:none;stroke-dashoffset:0;stroke-opacity:1"
       id="path4138-6-5"
       r="70.205605"
       cy="308.38486"
       cx="242.94168"
       d=""
       inkscape:connector-curvature="0" />
    <path
       style="opacity:1;fill:url(#linearGradient8503-5);fill-opacity:1;stroke:#000000;stroke-width:5;stroke-linecap:square;stroke-linejoin:round;stroke-miterlimit:4;stroke-dasharray:none;stroke-dashoffset:0;stroke-opacity:1"
       id="path4138-6-1-1"
       r="70.205605"
       cy="308.38486"
       cx="242.94168"
       d=""
       inkscape:connector-curvature="0" />
    <path
       style="opacity:1;fill:url(#linearGradient11272-3);fill-opacity:1;stroke:#000000;stroke-width:5;stroke-linecap:square;stroke-linejoin:round;stroke-miterlimit:4;stroke-dasharray:none;stroke-dashoffset:0;stroke-opacity:1"
       id="path4138-6-3-2"
       r="70.205605"
       cy="308.38486"
       cx="242.94168"
       d=""
       inkscape:connector-curvature="0" />
    <path
       style="opacity:1;fill:url(#linearGradient9134-5);fill-opacity:1;stroke:#000000;stroke-width:5;stroke-linecap:square;stroke-linejoin:round;stroke-miterlimit:4;stroke-dasharray:none;stroke-dashoffset:0;stroke-opacity:1"
       id="path4138-6-6-3"
       r="70.205605"
       cy="308.38486"
       cx="242.94168"
       d=""
       inkscape:connector-curvature="0" />
    <path
       style="opacity:1;fill:url(#linearGradient4171-36);fill-opacity:1;stroke:#000000;stroke-width:5;stroke-linecap:square;stroke-linejoin:round;stroke-miterlimit:4;stroke-dasharray:none;stroke-dashoffset:0;stroke-opacity:1"
       id="path4138-6-8"
       r="70.205605"
       cy="308.38486"
       cx="242.94168"
       d=""
       inkscape:connector-curvature="0" />
    <path
       style="opacity:1;fill:url(#linearGradient8503-3);fill-opacity:1;stroke:#000000;stroke-width:5;stroke-linecap:square;stroke-linejoin:round;stroke-miterlimit:4;stroke-dasharray:none;stroke-dashoffset:0;stroke-opacity:1"
       id="path4138-6-1-7"
       r="70.205605"
       cy="308.38486"
       cx="242.94168"
       d=""
       inkscape:connector-curvature="0" />
    <path
       style="opacity:1;fill:url(#linearGradient11272-5);fill-opacity:1;stroke:#000000;stroke-width:5;stroke-linecap:square;stroke-linejoin:round;stroke-miterlimit:4;stroke-dasharray:none;stroke-dashoffset:0;stroke-opacity:1"
       id="path4138-6-3-1"
       r="70.205605"
       cy="308.38486"
       cx="242.94168"
       d=""
       inkscape:connector-curvature="0" />
    <path
       style="opacity:1;fill:url(#linearGradient9134-6);fill-opacity:1;stroke:#000000;stroke-width:5;stroke-linecap:square;stroke-linejoin:round;stroke-miterlimit:4;stroke-dasharray:none;stroke-dashoffset:0;stroke-opacity:1"
       id="path4138-6-6-2"
       r="70.205605"
       cy="308.38486"
       cx="242.94168"
       d=""
       inkscape:connector-curvature="0" />
    <path
       style="opacity:1;fill:url(#linearGradient4171-367);fill-opacity:1;stroke:#000000;stroke-width:5;stroke-linecap:square;stroke-linejoin:round;stroke-miterlimit:4;stroke-dasharray:none;stroke-dashoffset:0;stroke-opacity:1"
       id="path4138-6-61"
       r="70.205605"
       cy="308.38486"
       cx="242.94168"
       d=""
       inkscape:connector-curvature="0" />
    <path
       style="opacity:1;fill:url(#linearGradient8503-56);fill-opacity:1;stroke:#000000;stroke-width:5;stroke-linecap:square;stroke-linejoin:round;stroke-miterlimit:4;stroke-dasharray:none;stroke-dashoffset:0;stroke-opacity:1"
       id="path4138-6-1-9"
       r="70.205605"
       cy="308.38486"
       cx="242.94168"
       d=""
       inkscape:connector-curvature="0" />
    <path
       style="opacity:1;fill:url(#linearGradient11272-2);fill-opacity:1;stroke:#000000;stroke-width:5;stroke-linecap:square;stroke-linejoin:round;stroke-miterlimit:4;stroke-dasharray:none;stroke-dashoffset:0;stroke-opacity:1"
       id="path4138-6-3-6"
       r="70.205605"
       cy="308.38486"
       cx="242.94168"
       d=""
       inkscape:connector-curvature="0" />
    <path
       style="opacity:1;fill:url(#linearGradient9134-9);fill-opacity:1;stroke:#000000;stroke-width:5;stroke-linecap:square;stroke-linejoin:round;stroke-miterlimit:4;stroke-dasharray:none;stroke-dashoffset:0;stroke-opacity:1"
       id="path4138-6-6-4"
       r="70.205605"
       cy="308.38486"
       cx="242.94168"
       d=""
       inkscape:connector-curvature="0" />
    <path
       style="color:#000000;font-variation-settings:normal;overflow:visible;opacity:1;vector-effect:none;fill:none;fill-opacity:1;stroke:#000000;stroke-width:2;stroke-linecap:butt;stroke-linejoin:bevel;stroke-miterlimit:4;stroke-dasharray:none;stroke-dashoffset:0;stroke-opacity:1;-inkscape-stroke:none;marker:none;paint-order:fill markers stroke;stop-color:#000000;stop-opacity:1"
       d="m 278.38676,617.20107 h 3 l 0.5,-9 h 3.5 l 0.5,9 h 3.5 l 0.5,-9 h 3.5 l 0.5,9 h 3.5 l 0.5,-9 h 2.5"
       id="path405"
       sodipodi:nodetypes="cccccccccccc" />
    <path
       style="color:#000000;font-variation-settings:normal;overflow:visible;opacity:1;vector-effect:none;fill:none;fill-opacity:1;stroke:#db2424;stroke-width:2;stroke-linecap:butt;stroke-linejoin:bevel;stroke-miterlimit:4;stroke-dasharray:none;stroke-dashoffset:0;stroke-opacity:1;-inkscape-stroke:none;marker:none;paint-order:fill markers stroke;stop-color:#000000;stop-opacity:1"
       d="m 279.88676,617.20107 h 1.5 l 0.5,-9 h 3.5 l 0.5,9 h 3.5 l 0.5,-9 h 1.5"
       id="path9094"
       clip-path="url(#clipPath9917)" />
    <path
       style="color:#000000;font-variation-settings:normal;overflow:visible;opacity:1;fill:#db2424;fill-opacity:1;stroke:#db2424;stroke-width:1;stroke-linecap:butt;stroke-linejoin:bevel;stroke-miterlimit:4;stroke-dasharray:1, 1;stroke-dashoffset:0;stroke-opacity:1;marker:none;paint-order:fill markers stroke;stop-color:#000000;stop-opacity:1"
       d="m 281.88676,607.20107 v -9"
       id="path9984"
       sodipodi:nodetypes="cc" />
    <path
       style="color:#000000;font-variation-settings:normal;overflow:visible;opacity:1;fill:#db2424;fill-opacity:1;stroke:#db2424;stroke-width:1;stroke-linecap:butt;stroke-linejoin:bevel;stroke-miterlimit:4;stroke-dasharray:1, 1;stroke-dashoffset:0;stroke-opacity:1;marker:none;paint-order:fill markers stroke;stop-color:#000000;stop-opacity:1"
       d="m 289.88676,613.20107 v -15"
       id="path9986"
       sodipodi:nodetypes="cc" />
    <path
       style="color:#000000;font-variation-settings:normal;overflow:visible;opacity:1;fill:#db2424;fill-opacity:1;stroke:none;stroke-width:1;stroke-linecap:butt;stroke-linejoin:bevel;stroke-miterlimit:4;stroke-dasharray:1, 1;stroke-dashoffset:0;stroke-opacity:1;marker:none;paint-order:fill markers stroke;stop-color:#000000;stop-opacity:1"
       d="m 281.88676,601.70107 2.5,-2 v 1.5 h 3 v -1.5 l 2.5,2 -2.5,2 v -1.5 h -3 v 1.5 z"
       id="path12026"
       sodipodi:nodetypes="ccccccccccc" />
  </g>
</svg>
